<svg width="29" height="28" viewBox="0 0 29 28" fill="none" xmlns="http://www.w3.org/2000/svg">
<circle opacity="0.53" cx="14.5" cy="14" r="14" fill="#1771F1"/>
<circle cx="14.5" cy="14" r="7" fill="#1771F1"/>
</svg>
